module gitlab.com/Alzoww/sso

go 1.21.0

require (
	github.com/brianvoe/gofakeit/v6 v6.28.0
	github.com/fatih/color v1.16.0
	github.com/golang-jwt/jwt/v5 v5.2.1
	github.com/golang-migrate/migrate/v4 v4.17.0
	github.com/ilyakaznacheev/cleanenv v1.5.0
	github.com/mattn/go-sqlite3 v1.14.16
	github.com/stretchr/testify v1.8.3
	gitlab.com/Alzoww/protos v0.0.0-20240415140927-883b98c7dd3b
	golang.org/x/crypto v0.19.0
	golang.org/x/exp v0.0.0-20240409090435-93d18d7e34b8
	google.golang.org/grpc v1.63.2
)

require (
	github.com/BurntSushi/toml v1.2.1 // indirect
	github.com/davecgh/go-spew v1.1.1 // indirect
	github.com/hashicorp/errwrap v1.1.0 // indirect
	github.com/hashicorp/go-multierror v1.1.1 // indirect
	github.com/joho/godotenv v1.5.1 // indirect
	github.com/mattn/go-colorable v0.1.13 // indirect
	github.com/mattn/go-isatty v0.0.20 // indirect
	github.com/pmezard/go-difflib v1.0.0 // indirect
	go.uber.org/atomic v1.7.0 // indirect
	golang.org/x/net v0.21.0 // indirect
	golang.org/x/sys v0.17.0 // indirect
	golang.org/x/text v0.14.0 // indirect
	google.golang.org/genproto/googleapis/rpc v0.0.0-20240227224415-6ceb2ff114de // indirect
	google.golang.org/protobuf v1.33.0 // indirect
	gopkg.in/yaml.v3 v3.0.1 // indirect
	olympos.io/encoding/edn v0.0.0-20201019073823-d3554ca0b0a3 // indirect
)
